Make Fake Data • charlatan
…
ch_generate("job", "phone_number", n = 30)
#> # A tibble: 30 × 2
#>    job                                 phone_number      
#>    <chr>                               <chr>             
#>  1 Interior and spatial designer       005-426-5468x0971 
#>  2 Geophysical data processor          459-522-7741      
#>  3 Ophthalmologist                     678.654.1098x445  
#>  4 Engineer, agricultural              373.769.5149      
#>  5 Dealer                              121.204.9799x098  
#>  6 Environmental health practitioner   1-222-568-8486    
#>  7 Surveyor, hydrographic              228.958.1370x0609 
#>  8 Lobbyist                            (976)726-0690x1803
#>  9 Cytogeneticist                      008.111.9486      
#> 10 Designer, blown glass/stained glass 387-870-5348      
#> # ℹ 20 more rows
…
