Generate a fake dataset — ch_generate • rOpenSci: charlatan
…
#> # A tibble: 1 x 3
#>   name                 job                        phone_number     
#>   <chr>                <chr>                      <chr>            
#> 1 Nicola Hand-Gottlieb Regulatory affairs officer 679.269.6127x4980
ch_generate(n = 100)

#> # A tibble: 100 x 3
#>    name                      job                              phone_number      
#>    <chr>                     <chr>                            <chr>             
#>  1 Camryn Hoeger             Product designer                 176.736.7236x47496
#>  2 Mr. Matt Schmitt          Publishing copy                  +50(4)4654282246  
#>  3 Davon Stamm               Office manager                   04213556388       
#>  4 Killian Hickle            Hydrologist                      222.282.5876x6421 
#>  5 Dr. Tracie Wisoky MD      Surveyor, minerals               (868)860-6914     
#>  6 Tracie Cummings PhD       Furniture conservator/restorer   1-923-556-3623    
#>  7 Irwin Lindgren            Operations geologist             03640119685       
#>  8 Mrs. Laverne Runolfsson … Chief Marketing Officer          (393)358-8715x024…
#>  9 Kelly Mueller             Research officer, political par… +64(5)3004564172  
#> 10 Ms. Luella Lindgren       Investment analyst               626-167-7520      
#> # … with 90 more rows
…
