Introduction to the charlatan package • rOpenSci: charlatan
…
ch_generate('job', 'phone_number', n = 30)
#> # A tibble: 30 x 2
#>    job                                          phone_number       
#>    <chr>                                        <chr>              
#>  1 Radio producer                               912.263.4309x600   
#>  2 Financial risk analyst                       (646)221-9186x40361
#>  3 Charity fundraiser                           249-953-8137       
#>  4 Surveyor, hydrographic                       492-432-7295x21138 
#>  5 Best boy                                     1-746-951-0052     
#>  6 Production designer, theatre/television/film 447-409-4627x7035  
#>  7 Leisure centre manager                       964.568.5686       
#>  8 Academic librarian                           257-766-2054       
#>  9 Art gallery manager                          09846450869        
#> 10 Retail banker                                836.382.8495       
#> # … with 20 more rows
…
